<?xml version="1.0" encoding="utf-8"?>
<!-- Generator: Adobe Illustrator 18.1.1, SVG Export Plug-In . SVG Version: 6.00 Build 0)  -->
<svg version="1.1" id="Layer_1" xmlns="http://www.w3.org/2000/svg" xmlns:xlink="http://www.w3.org/1999/xlink" x="0px" y="0px"
	 viewBox="0 0 128 128" enable-background="new 0 0 128 128" xml:space="preserve">
<g>
	<circle fill="none" cx="64" cy="64" r="48"/>
	<g>
		
			<radialGradient id="SVGID_1_" cx="178.5491" cy="86.5301" r="139.3825" gradientTransform="matrix(0.3515 0 0 -0.3515 0.6485 94.8034)" gradientUnits="userSpaceOnUse">
			<stop  offset="0" style="stop-color:#4AC8F0"/>
			<stop  offset="0.2482" style="stop-color:#4CC4ED"/>
			<stop  offset="0.4476" style="stop-color:#4CBDE9"/>
			<stop  offset="0.63" style="stop-color:#4BB2E0"/>
			<stop  offset="0.8022" style="stop-color:#49A4D8"/>
			<stop  offset="0.9659" style="stop-color:#4992CE"/>
			<stop  offset="1" style="stop-color:#4A8DCB"/>
		</radialGradient>
		<path fill="url(#SVGID_1_)" d="M108.1,45.1L91.7,57.8c0.4,2,0.7,4,0.7,6.1c0,7.6-2.9,14.8-8.4,20.1l13.9,13.9c9-9,14-21.1,14-33.9
			C112,57.4,110.7,51,108.1,45.1z"/>
		
			<radialGradient id="SVGID_2_" cx="178.5503" cy="86.5341" r="139.3837" gradientTransform="matrix(0.3515 0 0 -0.3515 0.6485 94.8034)" gradientUnits="userSpaceOnUse">
			<stop  offset="0" style="stop-color:#4AC8F0"/>
			<stop  offset="0.2482" style="stop-color:#4CC4ED"/>
			<stop  offset="0.4476" style="stop-color:#4CBDE9"/>
			<stop  offset="0.63" style="stop-color:#4BB2E0"/>
			<stop  offset="0.8022" style="stop-color:#49A4D8"/>
			<stop  offset="0.9659" style="stop-color:#4992CE"/>
			<stop  offset="1" style="stop-color:#4A8DCB"/>
		</radialGradient>
		<path fill="url(#SVGID_2_)" d="M97.9,30C79.2,11.3,48.7,11.3,30,30c-9,9.1-14,21.2-14,34s5,24.9,14,33.9L43.9,84
			c-5.3-5.3-8.4-12.5-8.4-20c0-7.6,2.9-14.7,8.4-20.1C54.7,33.2,72,32.8,83.1,43l19.2-7.8C101,33.4,99.5,31.6,97.9,30z"/>
		
			<linearGradient id="SVGID_3_" gradientUnits="userSpaceOnUse" x1="147.3651" y1="68.6565" x2="302.1685" y2="158.0321" gradientTransform="matrix(0.3515 0 0 -0.3515 0.6485 94.8034)">
			<stop  offset="0" style="stop-color:#FFD335"/>
			<stop  offset="0.1079" style="stop-color:#FAB631"/>
			<stop  offset="0.2329" style="stop-color:#F79D34"/>
			<stop  offset="0.3639" style="stop-color:#F68732"/>
			<stop  offset="0.5005" style="stop-color:#F47732"/>
			<stop  offset="0.6452" style="stop-color:#F26A32"/>
			<stop  offset="0.8032" style="stop-color:#F2612F"/>
			<stop  offset="1" style="stop-color:#F15F30"/>
		</linearGradient>
		<path fill="url(#SVGID_3_)" d="M70.5,54.2c-1.8-1.3-4.1-2-6.5-2c-6.5,0-11.7,5.2-11.7,11.7S57.5,75.7,64,75.7S75.7,70.5,75.7,64
			c0-0.2,0-0.5,0-0.8L106,39.8L70.5,54.2z"/>
	</g>
</g>
<g>
</g>
<g>
</g>
<g>
</g>
<g>
</g>
<g>
</g>
<g>
</g>
</svg>
