<?xml version="1.0" encoding="utf-8"?>
<!-- Generator: Adobe Illustrator 17.1.0, SVG Export Plug-In . SVG Version: 6.00 Build 0)  -->
<!DOCTYPE svg PUBLIC "-//W3C//DTD SVG 1.1//EN" "http://www.w3.org/Graphics/SVG/1.1/DTD/svg11.dtd">
<svg version="1.1" id="Layer_1" xmlns="http://www.w3.org/2000/svg" xmlns:xlink="http://www.w3.org/1999/xlink" x="0px" y="0px"
	 viewBox="0 0 364.2 88.4" enable-background="new 0 0 364.2 88.4" xml:space="preserve">
<g>
	<g>
		<g>
			<path fill="#4C4C4C" d="M147.8,79h-6.8l-5.2-54.4c-0.2-2.3-0.3-4.5-0.4-6.9h-0.4c-0.6,4.8-0.8,9.7-1.7,14.6l-8,46.8h-5.6
				l-8.1-54.4c-0.4-2.3-0.6-4.5-0.9-6.9h-0.3c-0.2,4.8-0.1,9.8-0.7,14.5L104,79h-6.7l10.4-73.9h5.9l8.3,55.1c0.4,2.4,0.6,5,0.9,7.4
				h0.3c0.5-4.2,0.8-8.6,1.5-12.8L133,5.1h5.9L147.8,79z"/>
			<path fill="#4C4C4C" d="M160,55.6v1.2c0,5,1,17.2,7.9,17.2c5.6,0,6.5-8.2,6.5-11.8h6.6c-0.1,7.2-3,17.8-12.3,17.8
				c-13.2,0-15-15.7-15-25.8c0-9,2.1-26.1,14.2-26.1c11.7,0,13.8,15.4,13.8,24.2v3.3H160z M174.9,50.2l-0.1-1
				c-0.2-4.8-0.4-14.9-7-14.9c-6.1,0-7.4,11.1-7.4,15.9H174.9z"/>
			<path fill="#4C4C4C" d="M215.3,79h-6.6v-3.6l0,0c-1.9,2.4-4.7,4.6-8.3,4.6c-8,0-11.9-4.6-11.9-26.5c0-11.3,0.4-25.5,12.5-25.5
				c3.5,0,5.8,1.7,7.7,4.1l0,0v-3h6.6V79z M202.4,33.3c-7,0-7.4,11.2-7.4,19.7c0,20.8,3.4,21.7,7.1,21.7c6.2,0,7.3-5.8,7.3-21.5
				C209.5,42.3,208.7,33.3,202.4,33.3z"/>
			<path fill="#4C4C4C" d="M244.2,39.4H244c-1.9-3-4.8-5.2-8.3-5.2c-3.8,0-6.3,2.9-6.3,6.6c0,4.8,4.1,7.7,8.1,11
				c4.1,3.4,8.1,7.1,8.1,13.7c0,8-5.3,14.4-13.6,14.4c-3.1,0-6.6-1.5-9-3.4V69c2.4,2.5,5,4.9,8.8,4.9c4.4,0,7.3-3.4,7.3-7.6
				c0-5-4-8.3-8.2-11.9c-4-3.5-8.1-7.4-8.1-13.4c0-7.5,5-12.8,12.5-12.8c3.2,0,6.4,1.3,8.8,3.2V39.4z"/>
			<path fill="#4C4C4C" d="M259.2,29.1v31.3c0,6.9,0.3,13.5,6.5,13.5c6.5,0,6.7-6.7,6.7-13.5V29.1h6.6v36.7
				c0,8.4-4.2,14.1-13.2,14.1c-8.9,0-13.2-5.6-13.2-14.1V29.1H259.2z"/>
			<path fill="#4C4C4C" d="M294.7,35.8h0.2c1.4-3.6,4-7.7,8.2-7.6v7.4l-1.2-0.1c-6.6,0-7.2,6.4-7.2,14.4V79h-6.6V29.1h6.6V35.8z"/>
			<path fill="#4C4C4C" d="M333.2,79h-26.2l19.9-44.5h-17.1v-5.4h26.7L316,73h17.1V79z"/>
		</g>
	</g>
	<g>
		<circle fill="none" cx="44.2" cy="44.2" r="44.2"/>
		<g>
			<radialGradient id="SVGID_1_" cx="43.648" cy="44.5609" r="45.1086" gradientUnits="userSpaceOnUse">
				<stop  offset="0" style="stop-color:#46C7F0"/>
				<stop  offset="0.2482" style="stop-color:#47C4EE"/>
				<stop  offset="0.4476" style="stop-color:#48BDE9"/>
				<stop  offset="0.63" style="stop-color:#48B2E2"/>
				<stop  offset="0.8022" style="stop-color:#48A4D9"/>
				<stop  offset="0.9659" style="stop-color:#4991CE"/>
				<stop  offset="1" style="stop-color:#498DCB"/>
			</radialGradient>
			<path fill="url(#SVGID_1_)" d="M84.8,26.8L69.7,38.5c0.4,1.8,0.6,3.7,0.6,5.6c0,7-2.7,13.6-7.7,18.5l12.8,12.8
				c8.3-8.3,12.9-19.4,12.9-31.2C88.4,38.1,87.2,32.2,84.8,26.8z"/>
			<radialGradient id="SVGID_2_" cx="43.6484" cy="44.5596" r="45.109" gradientUnits="userSpaceOnUse">
				<stop  offset="0" style="stop-color:#46C7F0"/>
				<stop  offset="0.2482" style="stop-color:#47C4EE"/>
				<stop  offset="0.4476" style="stop-color:#48BDE9"/>
				<stop  offset="0.63" style="stop-color:#48B2E2"/>
				<stop  offset="0.8022" style="stop-color:#48A4D9"/>
				<stop  offset="0.9659" style="stop-color:#4991CE"/>
				<stop  offset="1" style="stop-color:#498DCB"/>
			</radialGradient>
			<path fill="url(#SVGID_2_)" d="M75.4,12.9c-17.2-17.2-45.3-17.2-62.5,0C4.6,21.3,0,32.4,0,44.2C0,56,4.6,67.1,12.9,75.4
				l12.8-12.8C20.8,57.7,18,51.1,18,44.2c0-7,2.7-13.5,7.7-18.5c9.9-9.9,25.9-10.2,36.1-0.8l17.7-7.2C78.3,16,76.9,14.4,75.4,12.9z"
				/>
			<linearGradient id="SVGID_3_" gradientUnits="userSpaceOnUse" x1="33.5481" y1="50.3319" x2="83.6474" y2="21.4071">
				<stop  offset="0" style="stop-color:#FFD331"/>
				<stop  offset="0.1079" style="stop-color:#FBB733"/>
				<stop  offset="0.2329" style="stop-color:#F79C33"/>
				<stop  offset="0.3639" style="stop-color:#F58732"/>
				<stop  offset="0.5005" style="stop-color:#F37631"/>
				<stop  offset="0.6452" style="stop-color:#F26930"/>
				<stop  offset="0.8032" style="stop-color:#F1602F"/>
				<stop  offset="1" style="stop-color:#F15E2F"/>
			</linearGradient>
			<path fill="url(#SVGID_3_)" d="M50.2,35.2c-1.7-1.2-3.8-1.8-6-1.8c-6,0-10.8,4.8-10.8,10.8c0,6,4.8,10.8,10.8,10.8
				c6,0,10.8-4.8,10.8-10.8c0-0.2,0-0.5,0-0.7l27.9-21.6L50.2,35.2z"/>
		</g>
	</g>
</g>
<g>
	<path fill="#4C4C4C" d="M349.7,28h-1.1v-9.2h-2.5v-1.1h6.1v1.1h-2.5V28z"/>
	<path fill="#4C4C4C" d="M354.7,17.2l3.7,8.6l3.7-8.6l2.1,10.8H363l-1.3-6.9h0l-3.3,7.3l-3.3-7.3h0l-1.3,6.9h-1.2L354.7,17.2z"/>
</g>
</svg>
