<?xml version="1.0" encoding="utf-8"?>
<!-- Generator: Adobe Illustrator 17.1.0, SVG Export Plug-In . SVG Version: 6.00 Build 0)  -->
<!DOCTYPE svg PUBLIC "-//W3C//DTD SVG 1.1//EN" "http://www.w3.org/Graphics/SVG/1.1/DTD/svg11.dtd">
<svg version="1.1" id="Layer_1" xmlns="http://www.w3.org/2000/svg" xmlns:xlink="http://www.w3.org/1999/xlink" x="0px" y="0px"
	 viewBox="0 0 267.9 93" enable-background="new 0 0 267.9 93" xml:space="preserve">
<g>
	<g>
		<radialGradient id="SVGID_1_" cx="10.6997" cy="73.9893" r="77.9159" gradientUnits="userSpaceOnUse">
			<stop  offset="0" style="stop-color:#46C7F0"/>
			<stop  offset="1" style="stop-color:#498DCB"/>
		</radialGradient>
		<polygon fill="url(#SVGID_1_)" points="16.6,18 19.6,18 36.9,18 36.9,0 0,0 0,72 16.6,72 16.6,21 		"/>
		<radialGradient id="SVGID_2_" cx="39.2466" cy="95.8193" r="78.7091" gradientUnits="userSpaceOnUse">
			<stop  offset="0" style="stop-color:#FFD331"/>
			<stop  offset="0.2485" style="stop-color:#FEBF2A"/>
			<stop  offset="1" style="stop-color:#F15E2F"/>
		</radialGradient>
		<rect x="19.6" y="21" fill="url(#SVGID_2_)" width="36.9" height="72"/>
	</g>
	<g>
		<path fill="#4C4C4C" d="M96.7,18.5c-2.9-3.3-6.2-6-10.9-6c-6.9,0-10.7,5.7-10.7,12c0,8.6,6.3,12.7,12.7,17
			c6.3,4.4,12.6,9.1,12.6,19.3c0,10.8-7,21-18.5,21c-4.1,0-8.3-1.2-11.7-3.7v-8.9c3.1,3.3,7.3,6,12,6c7.3,0,11.3-6.4,11.2-13
			c0.1-8.6-6.3-12.5-12.6-16.9c-6.3-4.3-12.7-9.1-12.7-19.7c0-9.9,6.1-19.6,17-19.6c4.4,0,8.1,1.5,11.7,3.9V18.5z"/>
		<path fill="#4C4C4C" d="M135.5,55.5c0,9.5-1.2,26-14.4,26c-13.2,0-14.4-16.5-14.4-26c0-9.4,1.2-25.9,14.4-25.9
			C134.4,29.6,135.5,46.1,135.5,55.5z M113.3,55.5c0,4.9,0.2,20,7.9,20c7.7,0,7.8-15.1,7.8-20c0-4.8-0.2-19.9-7.8-19.9
			C113.5,35.6,113.3,50.7,113.3,55.5z"/>
		<path fill="#4C4C4C" d="M149.4,80.7H143V2.3h6.4V80.7z"/>
		<path fill="#4C4C4C" d="M183.8,80.7h-6.4v-3.9h-0.2c-1.9,2.8-4.7,4.7-8.3,4.7c-8,0-12-4.5-12-26.5c0-11.3,0.4-25.4,12.6-25.4
			c3.5,0,5.8,1.5,7.8,4.2h0.2v-3.4h6.4V80.7z M171,34.8c-7.1,0-7.5,11.2-7.5,19.7c0,20.8,3.4,21.8,7.2,21.8c6.2,0,7.4-5.8,7.4-21.6
			C178,43.9,177.3,34.8,171,34.8z"/>
		<path fill="#4C4C4C" d="M198.9,37.1h0.2c1.4-3.5,4.1-7.6,8.3-7.5v7.5l-1.3-0.1c-6.6,0-7.3,6.4-7.3,14.4v29.3h-6.4V30.4h6.4V37.1z"
			/>
		<path fill="#4C4C4C" d="M236.3,80.7h-26.2L230,36.3h-17.2v-5.9h26.8l-20.4,44.4h17.1V80.7z"/>
	</g>
</g>
<g>
	<path fill="#4C4C4C" d="M253.4,23.7h-1.1v-9.2h-2.5v-1.1h6.1v1.1h-2.5V23.7z"/>
	<path fill="#4C4C4C" d="M258.4,12.9l3.7,8.6l3.7-8.6l2.1,10.8h-1.2l-1.3-6.9h0l-3.3,7.3l-3.3-7.3h0l-1.3,6.9h-1.2L258.4,12.9z"/>
</g>
</svg>
